{
	"pagination": {
		"total": 1000,
		"per_page": 5,
		"current_page": 1,
		"last_page": 200,
		"from": 1,
		"to": 5
	},
	"trades": [
		{
			"id": 1,
			"tradeHandler":
			{
				"name": "Yelserp Scott",
				"email": "yelserpoj@ymail.com"
			},
			"tradeCurrencies":
			{
				"oldCurrency": "NGN",
				"newCurrency": "USD"
			},
			"rate": "1.34",
			"tradingAmount": 25000000.75,
			"deliveryDate": "in 8 days",
			"status": "active",
			"requiredAction": "capture payment details"
		},
		{
			"id": 2,
			"tradeHandler":
			{
				"name": "kasali rufai",
				"email": "kalali@ymail.com"
			},
			"tradeCurrencies":
			{
				"oldCurrency": "NGN",
				"newCurrency": "USD"
			},
			"rate": "1.34",
			"tradingAmount": 3000000.00,
			"deliveryDate": "in 2 days",
			"status": "active",
			"requiredAction": "upload proof of payment"
		},
		{
			"id": 3,
			"tradeHandler":
			{
				"name": "russel west",
				"email": "russel@ymail.com"
			},
			"tradeCurrencies":
			{
				"oldCurrency": "NGN",
				"newCurrency": "USD"
			},
			"rate": "1.34",
			"tradingAmount": 20000000.00,
			"deliveryDate": "2 days overdue",
			"status": "pending",
			"requiredAction": ""
		},
		{
			"id": 4,
			"tradeHandler":
			{
				"name": "Onto wanya",
				"email": "wetshdk@ymail.com"
			},
			"tradeCurrencies":
			{
				"oldCurrency": "NGN",
				"newCurrency": "USD"
			},
			"rate": "1.34",
			"tradingAmount": 40000000.00,
			"deliveryDate": "",
			"status": "declined",
			"requiredAction": ""
		},
		{
			"id": 5,
			"tradeHandler":
			{
				"name": "maye kiss",
				"email": "mayekiss@ymail.com"
			},
			"tradeCurrencies":
			{
				"oldCurrency": "NGN",
				"newCurrency": "USD"
			},
			"rate": "1.34",
			"tradingAmount": 15000000.00,
			"deliveryDate": "yesterday",
			"status": "closed",
			"requiredAction": ""
		},
		{
			"id": 6,
			"tradeHandler":
			{
				"name": "maye kiss",
				"email": "mayekiss@ymail.com"
			},
			"tradeCurrencies":
			{
				"oldCurrency": "NGN",
				"newCurrency": "USD"
			},
			"rate": "1.34",
			"tradingAmount": 15000000.00,
			"deliveryDate": "yesterday",
			"status": "closed",
			"requiredAction": ""
		},
		{
			"id": 7,
			"tradeHandler":
			{
				"name": "maye kiss",
				"email": "mayekiss@ymail.com"
			},
			"tradeCurrencies":
			{
				"oldCurrency": "NGN",
				"newCurrency": "USD"
			},
			"rate": "1.34",
			"tradingAmount": 15000000.00,
			"deliveryDate": "yesterday",
			"status": "closed",
			"requiredAction": ""
		}
	],
	"profile": {
		"id": 1,
		"name": "laura schellen",
		"role": "Supplier",
		"profileImage": ""
	}
}
